IMEI-1,IMEI-2,SN,COLOR,RAM,ROM,Date Of Manufacture,Batch No
5.05175E+14,5.45963E+14,3.33031E+14,cool gray,2GB,32GB,18-02-2021,10
4.56812E+14,3.32144E+14,3.55106E+14,Yellow,4GB,64GB,18-02-2021,10
9.82133E+14,5.31615E+14,9.16626E+14,black,4GB,64GB,18-02-2021,10
4.57653E+14,9.17391E+14,5.31176E+14,Black,4GB,64GB,18-02-2021,10
5.06475E+14,3.53516E+14,3.09175E+14,Black,6GB,128GB,18-02-2021,10
